ProblemNames,181331,183841,183842,183843,183844,183845,183846,196852,196853,196854,196855,196856,196857,196858
tentrup_ltl2dba_U1_environment_4.dqdimacs,0.89,0.92,0.90,0.91,0.92,0.89,0.89,3.67,-1,86.13,4.96,7.31,51.99,4.38
tentrup_full_arbiter_unreal1_environment_1.dqdimacs,98.00,97.18,98.64,100.21,107.35,98.71,99.55,8.20,4.71,7.73,8.66,7.68,8.77,8.03
tentrup_pec_multiplexer_5_17.dqdimacs,-1,-2,-2,-2,-1,-2,-2,-1,-1,-1,245.64,-1,-1,295.34
scholl_comp.blif_0.50_1.00_4_0_henkin.dqdimacs,-1,7.48,8.13,7.42,-1,7.48,40.52,-1,-1,-1,-1,-1,-1,-1
tentrup_pec_look_ahead_arbiter_3_15.dqdimacs,-1,-2,-2,-2,-1,-2,-2,-1,137.37,-1,245.74,-1,-1,246.44
bloem_genbuf5f4unrealn.dqdimacs,-1,-1,12.91,-1,-1,-1,36.76,-1,-1,-1,-1,-1,-1,-1
tentrup_loadcomp2_environment_4.dqdimacs,5.20,5.48,5.23,5.25,5.24,5.38,5.19,0.07,0.07,0.06,0.48,0.07,0.08,0.05
scholl_term1.blif_0.50_1.00_5_0_henkin.dqdimacs,-1,-1,-1,-1,-1,-1,-1,-1,-1,114.48,183.99,-1,-1,188.10
scholl_z4ml.blif_0.10_1.00_0_3_henkin.dqdimacs,0.15,0.13,0.12,0.14,0.12,0.14,0.14,0.13,0.15,0.14,0.16,0.16,0.17,0.16
bloem_amba6c5n.dqdimacs,-1,-1,20.78,-1,-1,-1,69.19,-1,-1,-1,-1,-1,-1,-1
scholl_comp.blif_0.50_1.00_2_2_henkin.dqdimacs,24.89,21.91,18.00,21.16,20.27,18.34,20.72,18.10,17.47,18.32,17.65,17.33,14.98,16.39
tentrup_pec_adder_n_bit_9_20.dqdimacs,-1,72.59,66.68,-1,-1,49.61,63.22,-1,-1,-1,-1,-1,-1,-1
scholl_C499.blif_0.10_1.00_4_2_henkin.dqdimacs,-1,-1,-2,-2,-1,-1,-2,-1,-1,-1,-1,-1,-1,-1
scholl_term1.blif_0.60_1.00_9_1_henkin.dqdimacs,1.82,1.79,1.82,1.86,1.88,1.98,1.81,12.15,11.22,9.19,12.04,11.91,10.57,12.86
bloem_add8y.dqdimacs,10.41,9.85,9.66,9.73,9.87,10.43,9.70,-1,-1,-1,98.05,-1,106.78,84.82
scholl_C499.blif_0.20_1.00_1_1_henkin.dqdimacs,3.69,3.60,3.59,3.73,3.67,3.72,3.71,0.31,0.32,0.41,0.67,0.24,0.31,0.32
tentrup_pec_look_ahead_arbiter_3_3.dqdimacs,-1,-2,-2,-2,-1,-2,-2,-1,-1,-1,-1,-1,-1,-1
tentrup_amba_decomposed_decode_environment_16.dqdimacs,-1,-2,-2,-2,-1,-2,-2,-1,-1,-1,-1,-1,-1,-1
scholl_C432.blif_0.10_1.00_2_0_henkin.dqdimacs,-1,-1,40.44,-1,-1,-1,31.72,-1,-1,-1,-1,-1,-1,-1
scholl_z4ml.blif_0.10_0.20_2_0_henkin.dqdimacs,94.45,1.32,1.22,36.40,22.71,1.50,9.98,-1,35.32,11.61,53.76,17.70,54.21,58.94
bloem_cnt2n.dqdimacs,-1,-1,-1,-1,-1,-1,-1,0.05,0.06,0.05,0.05,0.05,0.04,0.51
tentrup_load_balancer_unreal2_system_4.dqdimacs,57.62,54.22,53.05,53.68,55.64,55.74,57.98,20.82,-1,-1,189.49,-1,-1,176.24
scholl_comp.blif_0.60_1.00_5_0_henkin.dqdimacs,-1,-1,8.12,-1,-1,11.12,-1,-1,-1,-1,-1,-1,-1,-1
battleship-10-10-unsat.cnf.dqdimacs,118.32,116.70,116.38,117.19,116.70,119.20,116.36,-1,-1,-1,-1,-1,-1,287.73
bloem_stay4n.dqdimacs,11.91,0.90,0.88,1.49,13.06,0.97,1.49,2.19,12.07,1.28,7.47,1.51,14.99,7.43
tentrup_generalized_buffer_unreal2_system_1.dqdimacs,10.10,9.94,10.02,10.17,10.11,10.44,9.77,1.30,1.25,1.24,1.15,1.23,1.24,1.28
scholl_z4ml.blif_0.50_1.00_0_1_henkin.dqdimacs,0.13,0.13,0.12,0.12,0.12,0.13,0.11,1.13,0.73,0.68,0.73,0.57,0.76,0.63
bloem_cnt9n.dqdimacs,-1,2.46,2.16,2.77,188.75,2.39,5.74,-1,73.25,-1,79.68,222.27,70.01,109.68
scholl_C432.blif_0.20_0.50_2_1_henkin.dqdimacs,-1,-1,23.36,23.44,-1,27.16,29.71,-1,-1,-1,-1,-1,-1,-1
tentrup_pec_multiplexer_2_2.dqdimacs,-1,-1,-2,-1,73.55,-1,-2,-1,17.73,-1,34.93,-1,19.85,34.05
bloem_mv4n.dqdimacs,10.60,1.35,1.04,58.40,3.37,1.09,1.77,19.82,3.88,2.52,2.56,1.22,8.97,2.63
tentrup_pec_adder_n_bit_8_7.dqdimacs,-1,74.85,123.36,-1,-1,60.25,52.90,-1,-1,-1,-1,-1,-1,-1
tentrup_pec_look_ahead_arbiter_8_4.dqdimacs,-1,-2,-2,-2,-1,-2,-2,-1,-1,-1,-1,-1,-1,-1
scholl_z4ml.blif_0.10_0.20_0_3_henkin.dqdimacs,0.14,0.13,0.12,0.13,0.15,0.14,0.13,0.12,0.19,0.13,0.13,0.17,0.14,0.13
bloem_add10n.dqdimacs,18.39,16.03,16.30,17.41,17.18,18.59,16.99,-1,-1,-1,-1,-1,-1,-1
tentrup_genbuf3_system_16.dqdimacs,-1,207.01,189.59,191.96,-1,197.83,190.60,-1,-1,-1,-1,-1,-1,-1
scholl_z4ml.blif_0.50_1.00_7_0_henkin.dqdimacs,7.29,7.02,7.24,7.19,7.32,7.08,6.93,134.58,1.77,1.92,1.52,4.12,9.62,1.57
bloem_genbuf9b4n.dqdimacs,-1,-1,30.88,-1,-1,-1,105.81,-1,-1,-1,-1,-1,-1,-1
tentrup_ltl2dba05_environment_2.dqdimacs,0.55,0.54,0.53,0.54,0.55,0.56,0.52,0.29,0.34,0.28,0.32,0.33,0.28,0.34
scholl_C499.blif_0.10_1.00_3_0_henkin.dqdimacs,-1,-1,11.68,13.55,-1,-1,13.41,-1,-1,-1,-1,-1,-1,-1
scholl_comp.blif_0.10_0.20_2_1_henkin.dqdimacs,-1,-1,-2,-1,-1,-2,-1,-1,-1,-1,-1,-1,-1,-1
scholl_C432.blif_0.10_0.10_2_0_henkin.dqdimacs,-1,-1,21.32,26.21,-1,26.94,152.73,-1,-1,-1,-1,-1,-1,-1
tentrup_pec_multiplexer_1_26.dqdimacs,26.40,25.03,25.30,24.72,25.68,25.69,26.43,6.62,6.96,7.54,5.94,6.75,7.37,6.71
scholl_C432.blif_0.20_1.00_2_2_henkin.dqdimacs,1.61,1.57,1.56,1.56,1.54,1.58,1.60,0.08,0.11,0.07,0.08,0.08,0.08,0.08
hwb-n28-01-S136611085.shuffled-as.sat03-1627.cnf.dqdimacs,-1,-1,-1,-1,-1,-1,-1,-1,-1,-1,-1,-1,-1,-1
scholl_C432.blif_0.10_1.00_0_2_henkin.dqdimacs,-1,-1,18.09,22.27,-1,21.48,23.42,-1,-1,-1,-1,-1,-1,-1
tentrup_pec_multiplier_1_20.dqdimacs,-1,-1,-2,-1,65.98,-2,-2,-1,40.57,-1,116.65,-1,-1,93.28
scholl_C432.blif_0.50_1.00_3_3_henkin.dqdimacs,15.78,16.05,14.93,15.41,16.35,17.33,16.23,9.85,9.22,9.68,9.99,9.44,9.42,9.86
tentrup_ltl2dba13_environment_8.dqdimacs,-1,-1,-1,-1,-1,-1,-1,-1,-1,-1,-1,-1,-1,-1
bloem_mv11n.dqdimacs,-1,-1,10.92,-1,-1,18.63,-1,-1,-1,-1,-1,-1,-1,-1
tentrup_pec_look_ahead_arbiter_5_1.dqdimacs,-1,-2,-2,-1,-1,-2,-2,-1,-1,-1,-1,-1,-1,-1
bloem_cnt7y.dqdimacs,16.00,2.98,1.98,2.58,5.54,2.17,3.20,7.40,3.63,1.44,3.22,1.36,22.66,2.53
bloem_amba2f8unrealy.dqdimacs,-1,-1,16.23,-1,-1,-1,94.71,-1,-1,-1,-1,-1,-1,-1
scholl_z4ml.blif_0.60_1.00_7_2_henkin.dqdimacs,0.19,0.20,0.18,0.22,0.19,0.19,0.20,21.16,0.49,0.57,0.47,0.71,0.66,0.48
sgen3-n140-s18527668-sat.cnf.dqdimacs,-1,-1,-1,119.13,120.43,-1,120.98,-1,-1,-1,-1,-1,-1,-1
scholl_comp.blif_0.20_1.00_9_3_henkin.dqdimacs,-1,-1,12.37,-1,-1,-1,107.13,-1,-1,-1,-1,-1,-1,-1
scholl_C499.blif_0.10_1.00_9_2_henkin.dqdimacs,-1,-1,11.91,13.38,-1,-1,14.45,-1,-1,-1,-1,-1,-1,-1
tentrup_pec_multiplier_1_0.dqdimacs,-1,-1,63.44,-1,-1,-1,39.31,-1,-1,-1,-1,-1,-1,-1
tentrup_pec_look_ahead_arbiter_5_3.dqdimacs,-1,-2,-2,-2,-1,-2,-2,-1,-1,-1,-1,-1,-1,-1
scholl_term1.blif_0.20_1.00_3_1_henkin.dqdimacs,88.47,-1,-2,-1,16.14,-1,-2,259.88,9.80,-1,9.77,23.85,8.08,10.17
bloem_ifm_amba15n.dqdimacs,-1,-1,63.64,-1,-1,-1,-1,-1,-1,-1,-1,-1,-1,-1
sgen3-n260-s62321009-sat.cnf.dqdimacs,-1,-1,-1,-1,-1,-1,-1,-1,-1,-1,-1,-1,-1,-1
tentrup_pec_adder_n_bit_9_17.dqdimacs,-1,84.01,53.93,-1,-1,53.29,93.16,-1,-1,-1,-1,-1,-1,-1
scholl_z4ml.blif_0.20_1.00_2_1_henkin.dqdimacs,0.14,0.13,0.13,0.14,0.14,0.15,0.14,0.04,0.09,0.05,0.05,0.04,0.05,0.05
tentrup_pec_look_ahead_arbiter_3_12.dqdimacs,-1,-2,-2,-2,-1,-2,-2,-1,-1,-1,-1,-1,-1,-1
scholl_comp.blif_0.10_0.10_0_2_henkin.dqdimacs,-1,-1,-2,-1,-1,-2,-1,-1,-1,-1,-1,-1,-1,-1
f600.shuffled.cnf.dqdimacs,-1,-1,-1,-1,-1,-1,-1,-1,-1,-1,-1,-1,-1,-1
scholl_comp.blif_0.60_1.00_9_2_henkin.dqdimacs,-1,-2,-2,-2,-1,-2,-2,-1,-1,-1,-1,-1,-1,-1
scholl_C499.blif_0.10_1.00_0_1_henkin.dqdimacs,3.11,3.11,3.19,3.12,3.11,3.13,3.12,0.24,0.28,0.24,0.33,0.25,0.26,0.27
bloem_stay6n.dqdimacs,-1,7.12,6.62,-1,-1,8.07,7.42,-1,-1,-1,-1,65.27,-1,-1
tentrup_pec_multiplexer_5_12.dqdimacs,-1,-2,-2,-2,241.46,-2,-2,-1,37.86,-1,40.69,-1,-1,49.21
tentrup_ltl2dba_U1_system_16.dqdimacs,247.81,2.70,2.76,-1,-1,2.79,3.03,-1,-1,-1,-1,-1,-1,-1
tentrup_pec_adder_n_bit_1_19.dqdimacs,-1,-1,151.51,-1,-1,-1,78.57,-1,-1,-1,-1,-1,-1,-1
bloem_genbuf8c2unrealn.dqdimacs,-1,-1,18.27,-1,-1,-1,116.86,-1,-1,-1,-1,-1,-1,-1
bloem_genbuf1f3unrealn.dqdimacs,-1,12.82,10.02,-1,-1,-1,16.81,-1,-1,-1,-1,-1,-1,-1
bloem_genbuf6b4y.dqdimacs,-1,-1,17.76,-1,-1,-1,-1,-1,-1,-1,-1,-1,-1,-1
mm-2x2-6-6-s.1.shuffled-as.sat03-1499.cnf.dqdimacs,-1,-1,-1,-1,-1,-1,-1,-1,-1,-1,-1,-1,-1,-1
scholl_term1.blif_0.20_1.00_9_0_henkin.dqdimacs,-1,-1,27.44,33.11,-1,42.26,61.84,-1,-1,58.30,-1,-1,166.90,-1
tentrup_pec_full_adder_2_4.dqdimacs,0.06,0.07,0.05,0.12,0.07,0.06,0.06,0.04,0.04,0.04,0.04,0.04,0.04,0.05
scholl_z4ml.blif_0.10_0.10_2_3_henkin.dqdimacs,80.15,-2,-2,-2,12.58,-2,-2,4.75,10.80,6.69,3.34,3.22,8.89,3.39
bloem_bs8y.dqdimacs,77.53,5.95,3.05,-1,4.55,4.53,5.71,237.21,2.21,8.50,2.89,-1,-1,2.10
bloem_mult2.dqdimacs,0.09,0.08,0.07,0.08,0.06,0.06,0.06,0.04,0.05,0.04,0.92,0.05,0.03,0.05
scholl_term1.blif_0.60_1.00_3_1_henkin.dqdimacs,89.71,49.14,-2,-1,21.43,-2,-1,111.67,6.52,-1,7.59,22.97,6.03,8.17
scholl_comp.blif_0.10_0.10_1_3_henkin.dqdimacs,-1,-1,5.64,-1,-1,7.67,-1,-1,-1,-1,-1,-1,-1,-1
bloem_add20n.dqdimacs,-1,-1,59.75,-1,-1,-1,66.52,-1,-1,-1,-1,-1,-1,-1
php-010-008.shuffled-as.sat05-1171.cnf.dqdimacs,9.99,10.16,10.22,10.04,10.14,10.09,10.21,2.40,2.54,2.39,2.23,2.39,2.27,2.25
battleship-13-13-unsat.cnf.dqdimacs,-1,-1,-1,-1,-1,-1,-1,-1,-1,-1,-1,-1,-1,-1
tentrup_amba_decomposed_arbiter_system_8.dqdimacs,-1,-1,-1,-1,-1,-1,-1,-1,-1,-1,-1,-1,-1,-1
tentrup_pec_multiplexer_5_11.dqdimacs,-1,-2,-2,-2,87.54,-2,-2,-1,22.58,-1,17.38,-1,-1,24.11
sgen3-n200-s39840374-sat.cnf.dqdimacs,-1,-1,-1,-1,-1,-1,-1,-1,-1,-1,-1,-1,-1,-1
scholl_z4ml.blif_0.10_0.50_2_3_henkin.dqdimacs,80.88,-2,-2,-2,15.35,-2,-2,4.75,12.82,6.43,3.32,3.79,9.29,3.78
bloem_genbuf11c2unrealy.dqdimacs,-1,-1,29.76,-1,-1,-1,-1,-1,-1,-1,-1,-1,-1,-1
scholl_z4ml.blif_0.50_1.00_7_3_henkin.dqdimacs,6.65,6.82,6.76,6.93,6.79,6.88,6.84,90.98,0.99,1.36,0.90,3.36,1.08,0.80
bloem_genbuf8b3unrealn.dqdimacs,-1,-1,28.42,-1,-1,-1,49.71,-1,-1,-1,-1,-1,-1,-1
scholl_C499.blif_0.50_1.00_8_1_henkin.dqdimacs,-1,-1,-2,-2,-1,-1,-2,-1,-1,-1,-1,-1,-1,-1
tentrup_pec_look_ahead_arbiter_7_9.dqdimacs,-1,-2,-2,-2,-1,-2,-2,-1,-1,-1,-1,-1,-1,-1
scholl_comp.blif_0.10_1.00_0_1_henkin.dqdimacs,-1,-1,-2,-2,-1,-2,-2,-1,-1,-1,-1,-1,-1,-1
scholl_z4ml.blif_0.50_1.00_9_3_henkin.dqdimacs,0.14,0.14,0.15,0.15,0.14,0.14,0.13,0.21,0.22,0.21,1.03,0.25,0.24,0.27
tentrup_pec_look_ahead_arbiter_6_2.dqdimacs,-1,-2,-2,-2,-1,-2,-2,-1,-1,-1,-1,-1,-1,-1
tentrup_simple_arbiter_system_2.dqdimacs,0.15,0.13,0.13,0.14,0.13,0.16,0.14,0.07,0.08,0.06,0.06,0.11,0.07,0.09
scholl_C432.blif_0.20_0.50_2_0_henkin.dqdimacs,-1,-1,20.77,29.62,-1,23.96,-1,-1,-1,-1,-1,-1,-1,-1
bloem_genbuf7f7y.dqdimacs,-1,-1,24.57,-1,-1,-1,-1,-1,-1,-1,-1,-1,-1,-1
bloem_bs64n.dqdimacs,-1,-1,270.47,-1,-1,-1,-1,-1,-1,-1,-1,-1,-1,-1
scholl_term1.blif_0.50_1.00_5_3_henkin.dqdimacs,-1,-1,-1,-1,-1,-1,-1,-1,-1,105.44,86.27,-1,48.79,94.88
bloem_genbuf7c2unrealn.dqdimacs,-1,-1,18.24,-1,-1,34.21,60.84,-1,-1,-1,-1,-1,-1,-1
tentrup_pec_multiplexer_3_6.dqdimacs,-1,-2,-2,-2,-1,-2,-2,-1,122.70,-1,51.13,-1,-1,47.49
bloem_mult4.dqdimacs,0.07,0.08,0.08,0.10,0.08,0.09,0.09,0.04,0.05,0.05,0.05,0.05,0.05,0.28
scholl_z4ml.blif_0.20_0.50_2_0_henkin.dqdimacs,31.56,57.53,29.88,49.56,30.10,50.41,-1,245.81,2.28,1.51,3.01,1.48,5.48,2.14
bloem_amba9c5n.dqdimacs,-1,-1,36.78,-1,-1,-1,-1,-1,-1,-1,-1,-1,-1,-1
scholl_z4ml.blif_0.10_0.10_1_2_henkin.dqdimacs,0.16,0.16,0.14,0.19,0.15,0.15,0.16,0.06,0.05,0.05,0.04,0.08,0.05,0.06
sgen3-n240-s78945233-sat.cnf.dqdimacs,-1,-1,-1,-1,-1,-1,-1,-1,-1,-1,-1,-1,-1,-1
scholl_term1.blif_0.10_1.00_5_2_henkin.dqdimacs,-1,-1,-1,-1,-1,-1,-1,-1,218.05,116.61,44.11,-1,39.58,44.14
scholl_comp.blif_0.20_1.00_5_1_henkin.dqdimacs,-1,-1,-2,-1,-1,-2,-1,-1,-1,-1,-1,-1,-1,-1
bloem_amba10b4unrealy.dqdimacs,-1,-1,56.31,-1,-1,-1,84.29,-1,-1,-1,-1,-1,-1,-1
tentrup_pec_look_ahead_arbiter_7_5.dqdimacs,-1,27.04,20.91,22.64,-1,23.82,24.34,-1,-1,-1,-1,-1,-1,-1
sgen3-n120-s12930489-sat.cnf.dqdimacs,90.31,-1,131.70,76.02,74.42,-1,77.32,64.48,-1,-1,189.38,-1,-1,182.39
bloem_cnt6y.dqdimacs,8.46,1.89,0.87,1.42,2.47,1.00,1.64,-1,1.76,2.03,1.99,2.02,8.18,1.92
bloem_genbuf12f12y.dqdimacs,-1,-1,32.02,-1,-1,-1,65.78,-1,-1,-1,-1,-1,-1,-1
bloem_genbuf16c2unrealn.dqdimacs,-1,-1,40.23,-1,-1,-1,135.53,-1,-1,-1,-1,-1,-1,-1
bloem_genbuf13f13y.dqdimacs,-1,-1,38.58,-1,-1,-1,119.33,-1,-1,-1,-1,-1,-1,-1
tentrup_loadcomp3_environment_1.dqdimacs,0.57,0.57,0.56,0.68,0.59,0.58,0.61,0.08,0.06,0.07,0.07,0.08,0.07,0.10
tentrup_detector_unreal_environment_16.dqdimacs,4.65,4.36,4.34,4.89,4.55,4.60,5.02,0.08,0.08,0.08,0.07,0.07,0.07,0.07
tentrup_full_arbiter_unreal1_system_1.dqdimacs,0.21,0.19,0.17,0.27,0.21,0.20,0.19,0.05,0.06,0.06,0.05,0.07,0.05,0.06
scholl_term1.blif_0.60_1.00_9_0_henkin.dqdimacs,-1,-1,25.13,32.94,-1,35.97,52.93,-1,-1,73.28,-1,-1,168.35,-1
scholl_C432.blif_0.50_1.00_6_3_henkin.dqdimacs,-1,-1,60.53,70.64,-1,82.52,-1,-1,-1,-1,-1,-1,-1,-1
scholl_comp.blif_0.10_1.00_2_0_henkin.dqdimacs,-1,-1,17.01,-1,-1,22.06,-1,-1,-1,-1,-1,-1,-1,-1
bloem_amba8c6unrealn.dqdimacs,-1,-1,38.61,-1,-1,-1,79.97,-1,-1,-1,-1,-1,-1,-1
bloem_genbuf3f4y.dqdimacs,-1,-1,8.98,-1,-1,-1,-1,-1,-1,-1,-1,-1,-1,-1
bloem_bs16n.dqdimacs,-1,-1,25.49,-1,-1,-1,33.39,-1,286.44,-1,22.74,-1,-1,25.96
tentrup_pec_look_ahead_arbiter_7_22.dqdimacs,-1,-2,-2,-2,-1,-2,-2,-1,-1,-1,-1,-1,-1,-1
tentrup_pec_adder_n_bit_5_18.dqdimacs,-1,77.03,66.80,-1,-1,47.63,85.62,-1,-1,-1,-1,-1,-1,-1
marg3x3add8ch.shuffled-as.sat03-1448.cnf.dqdimacs,60.01,60.25,58.95,59.80,58.52,59.45,59.41,-1,-1,-1,-1,-1,-1,-1
scholl_comp.blif_0.20_0.20_0_3_henkin.dqdimacs,-1,-1,-2,-1,-1,-2,-1,-1,-1,-1,-1,-1,-1,-1
bloem_genbuf2b4n.dqdimacs,-1,-1,11.37,-1,-1,161.15,176.83,-1,-1,-1,-1,-1,-1,-1
bloem_stay2n.dqdimacs,0.34,0.34,0.32,0.32,0.34,0.32,0.33,6.04,1.18,0.48,0.62,0.49,0.70,0.57
bloem_genbuf4c3n.dqdimacs,-1,-1,14.50,-1,-1,-1,-1,-1,-1,-1,-1,-1,-1,-1
bloem_stay4y.dqdimacs,10.52,1.07,1.03,2.03,11.79,0.96,2.90,2.12,7.81,1.28,7.72,1.24,15.30,9.80
bloem_ex2.dqdimacs,0.08,0.09,0.09,0.09,0.08,0.13,0.09,0.05,0.05,0.05,0.07,0.05,0.04,0.05
bloem_genbuf13b4n.dqdimacs,-1,-1,46.22,-1,-1,-1,-1,-1,-1,-1,-1,-1,-1,-1
scholl_comp.blif_0.20_0.10_0_2_henkin.dqdimacs,-1,27.59,8.94,-1,-1,-1,-1,-1,-1,-1,-1,-1,-1,-1
tentrup_lilydemo04_environment_8.dqdimacs,-1,-1,-1,-1,-1,-1,-1,-1,-1,-1,-1,-1,-1,-1
tentrup_pec_multiplexer_3_7.dqdimacs,-1,37.07,24.52,-1,-1,28.34,26.55,-1,-1,-1,125.80,-1,-1,134.27
bloem_add2y.dqdimacs,0.11,0.10,0.10,0.14,0.16,0.10,0.11,0.11,0.05,0.05,0.05,0.05,0.05,0.06
scholl_comp.blif_0.10_0.10_0_3_henkin.dqdimacs,-1,-1,-2,-1,-1,-2,-1,52.38,-1,-1,-1,-1,-1,-1
bloem_genbuf11c2unrealn.dqdimacs,-1,-1,26.97,-1,-1,-1,40.90,-1,-1,-1,-1,-1,-1,-1
scholl_z4ml.blif_0.10_1.00_1_3_henkin.dqdimacs,0.17,0.17,0.16,0.17,0.17,0.16,0.15,0.05,0.05,0.05,0.05,0.06,0.05,0.05
tentrup_pec_multiplexer_3_2.dqdimacs,-1,33.93,21.60,30.04,-1,23.76,34.56,-1,-1,-1,-1,-1,-1,-1
scholl_z4ml.blif_0.30_0.10_1_2_henkin.dqdimacs,209.68,-1,-2,-2,25.99,-2,-2,7.84,66.38,10.97,22.62,3.86,13.91,26.35
battleship-11-21-sat.cnf.dqdimacs,-1,-1,-1,-1,-1,-1,-1,273.29,-1,-1,144.45,-1,-1,-1
bloem_genbuf14b3unrealn.dqdimacs,-1,-1,45.34,-1,-1,-1,-1,-1,-1,-1,-1,-1,-1,-1
bloem_genbuf9c3n.dqdimacs,-1,-1,19.47,-1,-1,-1,-1,-1,-1,-1,-1,-1,-1,-1
bloem_mv9y.dqdimacs,-1,-1,6.57,-1,-1,13.96,-1,-1,-1,-1,-1,-1,-1,-1
scholl_comp.blif_0.20_1.00_4_0_henkin.dqdimacs,-1,-1,24.97,29.87,-1,29.10,93.08,-1,-1,-1,-1,-1,-1,-1
tentrup_pec_adder_n_bit_3_18.dqdimacs,-1,90.59,65.45,-1,-1,56.70,58.72,-1,-1,-1,-1,-1,-1,-1
scholl_comp.blif_0.10_0.10_0_0_henkin.dqdimacs,-1,-1,7.29,-1,-1,7.36,72.51,-1,-1,-1,-1,-1,-1,-1
bloem_amba8f56unrealy.dqdimacs,-1,-1,44.24,-1,-1,-1,205.87,-1,-1,-1,-1,-1,-1,-1
scholl_C432.blif_0.20_1.00_7_1_henkin.dqdimacs,-1,-1,20.57,25.30,-1,27.42,40.00,-1,-1,-1,-1,-1,-1,-1
bloem_genbuf15f15n.dqdimacs,-1,-1,37.81,-1,-1,-1,-1,-1,-1,-1,-1,-1,-1,-1
tentrup_simple_arbiter_environment_2.dqdimacs,3.10,3.08,3.12,3.15,3.18,3.16,3.16,4.06,4.45,4.64,4.18,4.95,4.54,4.59
tentrup_full_arbiter_unreal3_environment_2.dqdimacs,162.76,180.07,162.36,180.13,177.37,161.93,165.34,103.25,82.80,119.32,200.19,-1,85.07,248.66
tentrup_pec_multiplexer_3_30.dqdimacs,-1,-2,-2,-1,37.90,-2,-2,-1,35.66,-1,36.91,-1,-1,35.82
tentrup_pec_look_ahead_arbiter_6_12.dqdimacs,-1,-2,-2,-2,-1,-2,-2,-1,-1,-1,-1,-1,-1,-1
marg3x3add8.shuffled-as.sat03-1449.cnf.dqdimacs,25.26,25.52,25.48,25.81,25.53,25.46,25.84,-1,-1,-1,-1,-1,-1,-1
bloem_amba4b9n.dqdimacs,-1,-1,20.93,-1,-1,-1,-1,-1,-1,-1,-1,-1,-1,-1
bloem_mvs4n.dqdimacs,0.89,0.54,0.53,0.63,0.74,0.51,1.03,13.13,0.96,0.59,0.83,0.50,1.67,0.89
tentrup_pec_look_ahead_arbiter_1_14.dqdimacs,-1,-2,-2,-2,-1,-2,-2,-1,-1,-1,-1,-1,-1,-1
battleship-10-17-sat.cnf.dqdimacs,244.78,-1,-1,195.09,200.96,-1,209.33,-1,-1,-1,-1,-1,-1,-1
tentrup_pec_look_ahead_arbiter_1_11.dqdimacs,-1,-1,-2,-2,-1,-1,-2,-1,-1,-1,-1,-1,-1,-1
scholl_comp.blif_0.20_0.20_2_2_henkin.dqdimacs,-1,-1,-2,-1,-1,-2,-1,-1,-1,-1,-1,-1,-1,-1
tentrup_pec_adder_n_bit_8_1.dqdimacs,-1,86.56,65.46,43.01,-1,51.84,45.28,-1,-1,-1,-1,-1,-1,-1
tentrup_pec_look_ahead_arbiter_1_0.dqdimacs,-1,-1,45.75,42.90,-1,44.49,43.79,-1,-1,-1,-1,-1,-1,-1
bloem_genbuf1b4n.dqdimacs,-1,-1,10.70,-1,-1,-1,28.25,-1,-1,-1,-1,-1,-1,-1
scholl_comp.blif_0.60_1.00_4_0_henkin.dqdimacs,-1,11.53,9.01,9.70,-1,9.59,44.68,-1,-1,-1,-1,-1,-1,-1
tentrup_lilydemo02_system_4.dqdimacs,0.18,0.18,0.18,0.18,0.18,0.18,0.18,0.30,0.24,0.27,0.27,0.29,0.26,0.30
bloem_cnt3y.dqdimacs,0.27,0.27,0.28,0.27,0.27,0.27,0.27,0.79,0.21,0.20,0.23,0.22,0.28,0.21
battleship-6-9-unsat.cnf.dqdimacs,17.17,16.69,17.21,16.72,16.92,17.13,16.89,-1,-1,-1,-1,-1,-1,-1
scholl_comp.blif_0.10_0.50_1_3_henkin.dqdimacs,-1,-1,-2,-1,-1,-2,-1,34.88,-1,-1,201.50,-1,-1,192.57
bloem_cnt2unrealy.dqdimacs,0.07,0.07,0.07,0.07,0.08,0.08,0.08,0.04,0.04,0.04,0.04,0.04,0.04,0.04
bloem_amba7b4unrealy.dqdimacs,-1,-1,36.49,-1,-1,-1,89.54,-1,-1,-1,-1,-1,-1,-1
urquhart3_25bis.shuffled.cnf.dqdimacs,116.80,99.97,99.52,99.74,99.92,99.94,100.29,-1,-1,-1,-1,-1,-1,-1
tentrup_amba_case_study_system_1.dqdimacs,-1,-1,-1,-1,-1,-1,-1,-1,-1,-1,-1,-1,-1,-1
scholl_comp.blif_0.10_1.00_4_2_henkin.dqdimacs,-1,-1,-2,-2,-1,-2,-2,-1,-1,-1,-1,-1,62.15,-1
bloem_amba3c5n.dqdimacs,-1,-1,14.33,-1,-1,-1,-1,-1,-1,-1,-1,-1,-1,-1
scholl_z4ml.blif_0.10_1.00_2_1_henkin.dqdimacs,0.14,0.14,0.14,0.14,0.14,0.14,0.14,0.04,0.04,0.05,0.04,0.05,0.04,0.05
crn_11_100_s.cnf.dqdimacs,-1,-1,-1,-1,-1,-1,-1,-1,-1,-1,-1,-1,-1,-1
tentrup_pec_adder_n_bit_3_1.dqdimacs,-1,-2,-2,-1,-1,-2,-2,-1,-1,-1,-1,-1,-1,-1
scholl_C499.blif_0.10_1.00_2_1_henkin.dqdimacs,3.16,3.12,3.12,3.12,3.12,3.12,3.05,0.25,0.24,0.24,0.25,0.24,0.25,0.24
tentrup_pec_look_ahead_arbiter_5_12.dqdimacs,-1,-2,-2,-2,-1,-2,-2,-1,-1,-1,-1,-1,-1,-1
bloem_genbuf8b4y.dqdimacs,-1,-1,29.67,-1,-1,-1,138.66,-1,-1,-1,-1,-1,-1,-1
tentrup_pec_multiplexer_1_4.dqdimacs,30.82,29.15,26.56,26.01,26.04,28.07,26.01,8.42,8.06,9.00,8.44,8.85,7.90,8.40
bloem_amba3b4unrealy.dqdimacs,-1,-1,16.04,-1,-1,-1,-1,-1,-1,-1,-1,-1,-1,-1
tentrup_amba_decomposed_lock_environment_2.dqdimacs,1.47,1.47,1.48,1.47,1.48,1.47,1.47,0.83,0.83,0.84,0.88,0.86,0.83,0.91
tentrup_amba_decomposed_tburst4_system_16.dqdimacs,-1,5.06,5.34,-1,-1,4.75,14.40,-1,-1,-1,-1,-1,-1,-1
scholl_z4ml.blif_0.50_0.50_1_0_henkin.dqdimacs,12.14,12.09,12.20,12.16,12.18,12.06,12.34,-1,5.48,4.22,4.75,3.24,14.93,4.81
tentrup_ltl2dba_beta_environment_1.dqdimacs,1.12,1.14,1.13,1.11,1.12,1.11,1.12,0.09,0.09,0.09,0.09,0.08,0.09,0.09
scholl_C432.blif_0.10_1.00_7_3_henkin.dqdimacs,19.92,17.91,18.08,19.31,21.26,18.04,17.97,13.09,12.67,12.38,13.88,13.24,13.39,13.64
tentrup_full_arbiter_environment_4.dqdimacs,-1,-1,-1,-1,-1,-1,-1,-1,-1,-1,-1,-1,-1,-1
bloem_cnt3n.dqdimacs,0.27,0.27,0.28,0.28,0.27,0.27,0.27,0.72,0.19,0.21,0.22,0.23,0.29,0.21
sgen3-n300-s12830984-sat.cnf.dqdimacs,-1,-1,-1,-1,-1,-1,-1,-1,-1,-1,-1,-1,-1,-1
scholl_z4ml.blif_0.30_0.10_2_1_henkin.dqdimacs,-1,-2,-2,-2,226.06,-2,-2,8.80,107.43,13.54,121.70,4.79,24.00,124.53
tentrup_round_robin_arbiter_system_1.dqdimacs,18.41,18.47,18.08,18.05,18.59,18.34,18.34,0.47,0.46,0.48,0.47,0.48,0.63,0.48
scholl_comp.blif_0.50_1.00_9_1_henkin.dqdimacs,-1,-1,-2,-2,-1,-2,-2,-1,-1,-1,-1,-1,-1,-1
bloem_cnt11n.dqdimacs,-1,20.11,3.08,13.08,-1,3.39,-1,-1,-1,-1,-1,-1,-1,-1
scholl_term1.blif_0.20_1.00_5_2_henkin.dqdimacs,-1,-1,-1,-1,-1,-1,-1,-1,270.67,121.63,41.70,-1,39.32,44.48
tentrup_prioritized_arbiter_environment_4.dqdimacs,43.67,43.58,43.81,43.84,43.39,43.28,43.30,49.14,29.95,35.50,-1,-1,31.47,-1
tentrup_pec_multiplier_3_4.dqdimacs,-1,-2,-2,-1,-1,-2,-1,-1,59.29,-1,-1,-1,-1,286.20
tentrup_pec_adder_n_bit_9_22.dqdimacs,-1,90.46,73.86,-1,-1,52.71,89.33,-1,-1,-1,-1,-1,-1,-1
scholl_comp.blif_0.30_0.50_2_1_henkin.dqdimacs,-1,-1,-2,-1,-1,-2,-2,10.01,-1,-1,-1,-1,-1,-1
scholl_z4ml.blif_0.20_1.00_7_0_henkin.dqdimacs,1.20,2.45,1.04,1.03,1.13,1.65,1.40,0.09,0.08,0.08,0.09,0.07,0.08,0.08
bloem_amba4c7n.dqdimacs,-1,-1,18.94,-1,-1,59.34,131.70,-1,-1,-1,-1,-1,-1,-1
tentrup_load_balancer_system_4.dqdimacs,42.15,43.27,41.81,44.24,42.16,43.26,43.70,21.58,-1,-1,170.50,-1,-1,148.85
tentrup_pec_multiplier_1_11.dqdimacs,-1,-1,-2,-1,-1,-2,-2,-1,256.42,-1,282.20,-1,-1,-1
sgen3-n160-s40283905-sat.cnf.dqdimacs,-1,-1,-1,239.20,137.33,-1,246.19,-1,-1,-1,-1,-1,-1,-1
tentrup_lilydemo19_environment_4.dqdimacs,145.78,207.50,143.20,144.31,205.76,144.27,144.96,-1,-1,-1,-1,-1,-1,-1
tentrup_pec_multiplier_3_3.dqdimacs,-1,-1,-2,-1,-1,-1,-2,-1,242.51,-1,-1,-1,-1,-1
scholl_comp.blif_0.10_0.50_0_3_henkin.dqdimacs,-1,-1,-2,-1,-1,-2,-1,32.55,-1,-1,-1,-1,-1,-1
scholl_C432.blif_0.20_1.00_8_2_henkin.dqdimacs,-1,-1,21.43,26.74,-1,25.89,27.39,-1,-1,-1,-1,-1,-1,-1
scholl_comp.blif_0.20_0.10_1_1_henkin.dqdimacs,-1,-1,7.13,-1,-1,8.23,210.18,-1,-1,-1,-1,-1,-1,-1
bloem_add4n.dqdimacs,2.03,2.04,2.04,2.04,2.04,2.04,2.07,8.39,0.58,0.44,0.54,0.96,1.33,0.60
bloem_add6y.dqdimacs,4.46,4.31,4.27,4.27,4.25,4.25,4.32,48.18,18.27,5.90,7.49,35.18,8.31,6.48
bloem_stay12y.dqdimacs,-1,-1,30.65,-1,-1,-1,-1,-1,-1,-1,-1,-1,-1,-1
scholl_z4ml.blif_0.20_1.00_7_1_henkin.dqdimacs,0.14,0.15,0.14,0.14,0.14,0.14,0.14,0.16,0.19,0.16,0.18,0.16,0.17,0.16
bloem_add16n.dqdimacs,91.82,-1,38.28,-1,71.44,-1,44.09,-1,-1,-1,-1,-1,-1,-1
tentrup_pec_look_ahead_arbiter_5_2.dqdimacs,-1,-2,-2,-2,-1,-2,-2,-1,-1,-1,-1,-1,-1,-1
tentrup_lilydemo01_environment_8.dqdimacs,1.29,1.30,1.30,1.29,1.30,1.30,1.30,0.06,0.07,0.07,0.06,0.07,0.09,0.06
mod2-rand3bip-sat-270-1.shuffled-as.sat05-2248.cnf.dqdimacs,-1,-1,-1,-1,-1,-1,-1,-1,-1,-1,-1,-1,-1,-1
tentrup_lilydemo12_environment_8.dqdimacs,15.88,15.67,15.58,15.35,15.38,15.92,15.38,32.90,-1,-1,-1,-1,-1,-1
bloem_bs16y.dqdimacs,-1,-1,24.05,-1,-1,-1,31.12,-1,293.24,-1,22.63,-1,-1,24.18
battleship-7-12-unsat.cnf.dqdimacs,-1,-1,-1,-1,-1,-1,-1,-1,-1,-1,-1,-1,-1,-1
scholl_z4ml.blif_0.10_0.20_1_2_henkin.dqdimacs,0.15,0.14,0.15,0.14,0.14,0.15,0.14,0.06,0.05,0.05,0.04,0.05,0.05,0.04
sgen3-n180-s34713902-sat.cnf.dqdimacs,-1,-1,-1,-1,-1,-1,-1,-1,-1,-1,-1,-1,-1,-1
tentrup_load_balancer_unreal1_system_2.dqdimacs,5.21,5.18,5.19,5.27,5.18,5.18,5.29,2.64,2.83,2.88,2.96,2.89,2.83,3.02
tentrup_pec_multiplexer_1_11.dqdimacs,-1,-1,-2,-1,42.73,-1,-2,-1,56.95,-1,40.57,-1,-1,40.27
bloem_genbuf14c2unrealn.dqdimacs,-1,-1,35.92,-1,-1,-1,64.23,-1,-1,-1,-1,-1,-1,-1
bloem_genbuf5f4unrealy.dqdimacs,-1,-1,15.81,-1,-1,-1,139.82,-1,-1,-1,-1,-1,-1,-1
scholl_comp.blif_0.10_1.00_9_3_henkin.dqdimacs,-1,-1,-2,-2,-1,-2,-2,-1,-1,-1,-1,-1,-1,-1
scholl_comp.blif_0.50_1.00_5_1_henkin.dqdimacs,-1,-1,-2,-1,-1,-1,-2,-1,-1,-1,-1,-1,-1,-1
tentrup_amba_decomposed_tburst4_system_1.dqdimacs,1.43,1.40,1.42,1.41,1.44,1.41,1.41,0.28,0.27,0.26,0.25,0.27,0.22,0.30
bloem_amba5b4unrealy.dqdimacs,-1,51.42,26.50,-1,-1,39.70,127.90,-1,-1,-1,-1,-1,-1,-1
scholl_C499.blif_0.20_1.00_2_0_henkin.dqdimacs,-1,-1,10.07,11.01,-1,-1,-1,-1,-1,-1,-1,-1,-1,-1
scholl_z4ml.blif_0.20_1.00_1_0_henkin.dqdimacs,8.88,75.37,4.40,26.68,9.01,27.40,26.86,144.90,4.93,5.07,4.38,4.25,8.26,4.45
tentrup_amba_case_study_unreal2_system_1.dqdimacs,-1,-1,-1,-1,-1,-1,-1,-1,-1,-1,-1,-1,-1,-1
bloem_cnt6n.dqdimacs,6.06,1.15,0.87,1.01,1.86,0.89,1.42,-1,2.27,2.03,2.26,2.63,7.46,2.06
bloem_mvs2y.dqdimacs,0.10,0.10,0.09,0.10,0.08,0.09,0.10,0.05,0.05,0.05,0.04,0.04,0.04,0.04
x1_40.shuffled.cnf.dqdimacs,-1,219.33,218.86,219.76,222.42,221.21,221.06,-1,-1,-1,-1,-1,-1,-1
scholl_term1.blif_0.50_1.00_9_2_henkin.dqdimacs,1.71,1.72,1.73,1.71,1.72,1.77,1.74,16.72,10.58,18.78,13.43,11.66,12.37,12.67
tentrup_pec_full_adder_2_1.dqdimacs,0.08,0.08,0.07,0.08,0.08,0.07,0.08,0.05,0.05,0.04,0.04,0.04,0.04,0.05
scholl_C432.blif_0.30_1.00_2_1_henkin.dqdimacs,1.58,1.58,1.58,1.58,1.58,1.57,1.58,0.06,0.08,0.07,0.07,0.07,0.07,0.08
tentrup_pec_look_ahead_arbiter_5_10.dqdimacs,-1,-2,-2,-2,-1,-2,-2,-1,-1,-1,-1,-1,-1,-1
tentrup_pec_multiplier_1_10.dqdimacs,-1,-1,-2,-1,64.22,-1,-2,-1,34.67,-1,66.37,-1,-1,74.70
bloem_genbuf10c3n.dqdimacs,-1,-1,21.47,-1,-1,-1,34.78,-1,-1,-1,-1,-1,-1,-1
bloem_genbuf12b4y.dqdimacs,-1,-1,40.92,-1,-1,-1,-1,-1,-1,-1,-1,-1,-1,-1
scholl_comp.blif_0.10_1.00_2_1_henkin.dqdimacs,-1,-1,-2,-1,169.86,-2,-2,-1,-1,-1,46.88,197.85,54.48,47.81
sgen3-n220-s24359701-sat.cnf.dqdimacs,-1,-1,-1,-1,-1,-1,-1,-1,-1,-1,-1,-1,-1,-1
tentrup_pec_look_ahead_arbiter_2_4.dqdimacs,-1,-1,-2,-2,-1,-2,-1,-1,-1,-1,-1,-1,-1,-1
tentrup_pec_adder_n_bit_9_11.dqdimacs,-1,79.37,66.41,42.26,-1,51.69,44.07,-1,-1,-1,-1,-1,-1,-1
tentrup_ltl2dba_theta_environment_1.dqdimacs,0.38,0.38,0.39,0.39,0.36,0.38,0.40,0.08,0.06,0.06,0.05,0.06,0.05,0.05
bloem_genbuf9c2unrealy.dqdimacs,-1,-1,34.89,-1,-1,-1,-1,-1,-1,-1,-1,-1,-1,-1
tentrup_pec_adder_n_bit_5_11.dqdimacs,-1,82.65,122.21,-1,-1,63.53,186.43,-1,-1,-1,-1,-1,-1,-1
scholl_term1.blif_0.60_1.00_3_3_henkin.dqdimacs,96.42,-1,-2,-1,21.34,-2,-2,-1,20.00,-1,16.02,38.78,14.29,17.36
scholl_C499.blif_0.60_1.00_0_3_henkin.dqdimacs,3.12,3.08,3.11,3.15,3.10,3.10,3.09,0.24,0.24,0.25,0.25,0.24,0.24,0.24
battleship-10-19-sat.cnf.dqdimacs,211.02,236.64,206.07,210.97,204.48,208.24,208.69,45.76,-1,-1,43.27,-1,-1,44.44
scholl_term1.blif_0.20_1.00_3_2_henkin.dqdimacs,89.44,-1,-2,-1,-1,-1,-2,-1,8.18,-1,-1,24.99,-1,-1
bloem_genbuf15b4y.dqdimacs,-1,-1,44.31,-1,-1,-1,72.98,-1,-1,-1,-1,-1,-1,-1
scholl_comp.blif_0.10_1.00_5_2_henkin.dqdimacs,-1,-1,-2,-1,-1,-2,-1,-1,-1,-1,-1,-1,-1,-1
tentrup_round_robin_arbiter_environment_2.dqdimacs,0.80,0.80,0.79,0.80,0.80,0.79,0.80,0.25,0.23,0.23,0.25,0.72,0.23,0.22
scholl_comp.blif_0.10_0.20_1_3_henkin.dqdimacs,-1,-1,-2,-1,-1,-2,-2,35.79,-1,-1,177.03,-1,-1,171.44
eulcbip-7-UNSAT.shuffled-as.sat05-3936.cnf.dqdimacs,-1,-1,-1,-1,-1,-1,-1,-1,-1,-1,-1,-1,-1,-1
bloem_unrealizable.dqdimacs,0.05,0.05,0.06,0.06,0.04,0.05,0.05,0.04,0.04,0.04,0.04,0.04,0.04,0.04
bloem_genbuf10b4y.dqdimacs,-1,-1,37.67,-1,-1,-1,-1,-1,-1,-1,-1,-1,-1,-1
bloem_stay18n.dqdimacs,-1,-1,151.19,191.22,-1,-1,-1,-1,-1,-1,-1,-1,-1,-1
tentrup_load_balancer_environment_8.dqdimacs,235.93,255.66,227.54,238.70,253.41,243.28,246.77,2.75,-1,-1,12.40,4.53,-1,14.35
bloem_cnt11y.dqdimacs,-1,116.25,2.73,42.22,-1,4.17,3.66,-1,-1,-1,-1,-1,-1,-1
tentrup_pec_multiplexer_5_2.dqdimacs,-1,-2,-2,-1,221.40,-2,-2,-1,-1,-1,-1,-1,-1,-1
tentrup_pec_adder_n_bit_4_11.dqdimacs,-1,-2,-2,-1,-1,-2,-2,-1,-1,-1,-1,-1,-1,-1
scholl_comp.blif_0.10_1.00_0_0_henkin.dqdimacs,-1,-1,14.78,15.73,-1,19.41,23.69,-1,-1,-1,-1,-1,-1,-1
scholl_C499.blif_0.10_1.00_7_2_henkin.dqdimacs,-1,-1,-2,-2,-1,-1,-2,-1,-1,-1,-1,-1,-1,-1
scholl_term1.blif_0.50_1.00_3_1_henkin.dqdimacs,88.16,40.94,-2,-1,18.12,-2,-1,112.26,8.04,-1,7.81,24.43,6.69,7.60
bloem_genbuf11b3unrealn.dqdimacs,-1,-1,31.57,-1,-1,-1,44.73,-1,-1,-1,-1,-1,-1,-1
bloem_add4y.dqdimacs,6.78,6.86,6.83,6.68,6.80,6.72,6.91,1.17,0.56,0.56,0.57,0.50,1.22,0.58
battleship-5-8-unsat.cnf.dqdimacs,4.35,4.38,4.38,4.37,4.39,4.36,4.36,74.39,92.52,80.65,95.93,95.62,94.68,92.44
tentrup_genbuf2_system_4.dqdimacs,56.71,54.05,54.83,55.96,53.67,54.05,56.55,141.26,-1,-1,-1,-1,-1,-1
scholl_C432.blif_0.50_1.00_8_1_henkin.dqdimacs,-1,43.58,20.26,21.83,-1,23.29,35.07,-1,-1,-1,-1,-1,-1,-1
bloem_genbuf15c3y.dqdimacs,-1,-1,39.32,-1,-1,-1,-1,-1,-1,-1,-1,-1,-1,-1
scholl_term1.blif_0.60_1.00_5_1_henkin.dqdimacs,-1,-1,-1,-1,-1,-1,-1,-1,45.54,100.96,38.15,-1,61.92,38.66
scholl_z4ml.blif_0.10_0.10_0_3_henkin.dqdimacs,0.14,0.13,0.12,0.13,0.13,0.12,0.13,0.12,0.12,0.13,0.13,0.13,0.14,0.14
scholl_comp.blif_0.10_1.00_2_3_henkin.dqdimacs,-1,-1,-2,-1,-1,-1,-2,-1,-1,-1,-1,-1,-1,-1
tentrup_pec_adder_n_bit_9_6.dqdimacs,-1,79.76,71.24,-1,-1,60.58,46.39,-1,-1,-1,-1,-1,-1,-1
lksat-n900-m3357-k3-l5-s950595579.used-as.sat04-938.cnf.dqdimacs,263.12,267.28,260.79,270.46,267.58,259.34,267.33,-1,-1,-1,289.14,-1,-1,-1
tentrup_pec_multiplier_3_2.dqdimacs,-1,-2,-2,-1,169.89,-2,-2,-1,132.10,-1,-1,-1,-1,-1
bloem_amba8c7y.dqdimacs,-1,-1,38.80,-1,-1,-1,110.55,-1,-1,-1,-1,-1,-1,-1
bloem_cnt4n.dqdimacs,0.64,0.49,0.48,0.52,0.53,0.51,64.61,11.81,0.32,0.39,0.35,0.74,0.63,0.37
bloem_mult9.dqdimacs,0.48,0.48,0.48,0.48,0.48,0.48,0.49,0.07,0.06,0.06,0.05,0.06,0.06,0.05
tentrup_lilydemo07_system_16.dqdimacs,192.15,2.76,2.74,3.15,-1,2.68,62.42,-1,-1,-1,-1,-1,-1,-1
tentrup_pec_multiplexer_1_2.dqdimacs,140.80,-1,-2,-1,43.28,-2,-2,-1,43.42,-1,37.02,-1,-1,36.56
scholl_comp.blif_0.10_0.20_0_0_henkin.dqdimacs,-1,-1,5.94,-1,-1,6.86,-1,-1,-1,-1,-1,-1,-1,-1
bloem_add10y.dqdimacs,11.27,10.86,10.89,10.99,11.08,11.20,10.86,-1,-1,-1,-1,-1,-1,-1
scholl_term1.blif_0.50_1.00_3_0_henkin.dqdimacs,-1,-1,12.28,-1,-1,106.96,29.57,-1,-1,-1,-1,-1,-1,-1
sgen3-n280-s93756482-sat.cnf.dqdimacs,-1,-1,-1,-1,-1,-1,-1,-1,-1,-1,-1,-1,-1,-1
tentrup_pec_adder_n_bit_4_5.dqdimacs,-1,82.62,68.48,-1,-1,53.97,46.46,-1,-1,-1,-1,-1,-1,-1
tentrup_pec_multiplexer_1_8.dqdimacs,141.22,-1,-2,-1,43.75,-1,-2,-1,28.60,-1,28.51,-1,-1,28.38
bloem_genbuf16c3y.dqdimacs,-1,-1,44.40,-1,-1,-1,-1,-1,-1,-1,-1,-1,-1,-1
scholl_C432.blif_0.20_1.00_0_0_henkin.dqdimacs,-1,53.92,21.51,22.77,-1,24.65,62.47,-1,-1,-1,-1,-1,-1,-1
tentrup_ltl2dba_alpha_environment_8.dqdimacs,-1,-1,-1,-1,-1,-1,-1,-1,-1,-1,-1,-1,-1,-1
bloem_genbuf15f14unrealy.dqdimacs,-1,-1,39.20,-1,-1,-1,-1,-1,-1,-1,-1,-1,-1,-1
x1_80.shuffled.cnf.dqdimacs,-1,-1,-1,-1,-1,-1,-1,-1,-1,-1,-1,-1,-1,-1
bloem_genbuf11f11n.dqdimacs,-1,-1,38.76,-1,-1,-1,-1,-1,-1,-1,-1,-1,-1,-1
scholl_z4ml.blif_0.10_0.50_0_1_henkin.dqdimacs,8.46,18.10,-2,8.13,7.03,20.02,-2,5.40,3.48,4.44,3.73,5.18,4.15,3.70
tentrup_ltl2dba_U1_system_1.dqdimacs,0.14,0.14,0.14,0.14,0.14,0.14,0.14,0.04,0.04,0.04,0.05,0.04,0.05,0.04
bloem_mvs24n.dqdimacs,-1,-1,11.83,-1,-1,-1,29.63,-1,-1,-1,-1,-1,35.11,-1
bloem_amba9b5y.dqdimacs,-1,-1,57.73,-1,-1,-1,150.99,-1,-1,-1,-1,-1,-1,-1
scholl_term1.blif_0.10_1.00_5_1_henkin.dqdimacs,-1,-1,-1,-1,-1,-1,-1,-1,44.69,107.14,38.10,-1,63.89,38.41
bloem_add6n.dqdimacs,6.91,6.42,6.52,6.44,6.47,6.47,6.45,268.91,-1,10.34,27.80,-1,14.97,22.63
tentrup_pec_multiplier_1_9.dqdimacs,-1,-1,-2,-1,62.17,-1,-2,-1,38.67,-1,-1,-1,-1,-1
bloem_mv20y.dqdimacs,-1,-1,20.29,-1,-1,-1,-1,-1,-1,-1,-1,-1,-1,-1
crn_11_99_u.cnf.dqdimacs,-1,-1,-1,-1,-1,-1,-1,-1,-1,-1,-1,-1,-1,-1
bloem_mult6.dqdimacs,0.14,0.15,0.15,0.15,0.14,0.15,0.15,0.05,0.05,0.04,0.05,0.28,0.05,0.04
bloem_bs128y.dqdimacs,-1,-1,-1,-1,-1,-1,-1,-1,-1,-1,-1,-1,-1,-1
bloem_amba8f57n.dqdimacs,-1,-1,34.07,-1,-1,-1,-1,-1,-1,-1,-1,-1,-1,-1
scholl_comp.blif_0.50_1.00_9_2_henkin.dqdimacs,-1,8.05,7.13,7.68,-1,7.29,77.98,-1,-1,-1,-1,-1,-1,-1
bloem_genbuf11f11y.dqdimacs,-1,-1,36.63,-1,-1,-1,228.08,-1,-1,-1,-1,-1,-1,-1
battleship-11-11-unsat.cnf.dqdimacs,282.26,299.46,297.56,-1,299.43,-1,299.51,73.90,64.08,-1,-1,-1,-1,-1
scholl_C432.blif_0.10_1.00_7_2_henkin.dqdimacs,-1,229.67,19.80,20.99,-1,23.97,22.79,-1,-1,-1,-1,-1,-1,-1
tentrup_pec_look_ahead_arbiter_7_2.dqdimacs,-1,34.51,49.23,29.61,-1,33.39,30.99,-1,-1,-1,-1,-1,-1,-1
scholl_z4ml.blif_0.10_1.00_2_0_henkin.dqdimacs,9.69,104.81,4.46,20.81,8.91,64.26,-1,100.20,4.78,5.30,4.68,4.74,7.97,4.67
tentrup_pec_look_ahead_arbiter_1_2.dqdimacs,-1,-1,-2,-2,-1,-1,-2,-1,-1,-1,-1,-1,-1,-1
tentrup_pec_adder_n_bit_1_3.dqdimacs,-1,-1,150.40,-1,-1,-1,108.31,-1,-1,-1,-1,-1,-1,-1
bloem_mv20n.dqdimacs,-1,-1,18.73,-1,-1,-1,37.71,-1,-1,-1,-1,-1,-1,-1
bloem_genbuf9f8unrealy.dqdimacs,-1,-1,31.54,-1,-1,-1,90.30,-1,-1,-1,-1,-1,-1,-1
battleship-12-12-unsat.cnf.dqdimacs,-1,-1,-1,-1,-1,-1,-1,-1,-1,-1,-1,-1,-1,-1
scholl_C432.blif_0.40_1.00_1_2_henkin.dqdimacs,213.07,122.14,-2,56.84,40.29,76.07,-2,-1,25.79,52.84,32.62,-1,26.19,32.55
bloem_mult11.dqdimacs,0.88,0.89,0.87,0.88,0.87,0.87,0.88,0.07,0.06,0.05,0.06,0.07,0.06,0.05
tentrup_pec_multiplier_1_30.dqdimacs,-1,-1,-2,-1,-1,-1,-2,-1,61.91,-1,45.01,-1,-1,45.28
bloem_genbuf12f12n.dqdimacs,-1,-1,36.21,-1,-1,-1,-1,-1,-1,-1,-1,-1,-1,-1
